{
    "com.github.randomcharacter.ulauncher-meet": {
        "id": "com.github.randomcharacter.ulauncher-meet",
        "url": "https://github.com/randomCharacter/ulauncher-meet",
        "updated_at": "2024-03-17T02:26:04.730512",
        "last_commit": "f2fe055b6e21e15ea4c65918a6f499d61d4cf4b0",
        "last_commit_time": "2021-02-26T22:04:21"
    },
    "com.github.brpaz.ulauncher-github": {
        "id": "com.github.brpaz.ulauncher-github",
        "url": "https://github.com/brpaz/ulauncher-github",
        "updated_at": "2024-03-17T02:36:09.609530",
        "last_commit": "c2a4d8f651c326c13290eb9e28c076f14aaac704",
        "last_commit_time": "2022-10-15T10:36:52"
    },
    "com.github.brpaz.ulauncher-gitlab": {
        "id": "com.github.brpaz.ulauncher-gitlab",
        "url": "https://github.com/brpaz/ulauncher-gitlab",
        "updated_at": "2024-03-17T02:43:51.378407",
        "last_commit": "291d9bf25f415ad358c28d465ed73751ee176dc4",
        "last_commit_time": "2021-12-12T15:46:42"
    },
    "com.github.friday.ulauncher-gnome-settings": {
        "id": "com.github.friday.ulauncher-gnome-settings",
        "url": "https://github.com/friday/ulauncher-gnome-settings",
        "updated_at": "2024-03-17T02:45:37.135754",
        "last_commit": "58aa3c1e90d46007b0bbbae5bfbd5093b527032f",
        "last_commit_time": "2023-11-25T22:40:04"
    },
    "com.github.sergius02.ulauncher-shortit": {
        "id": "com.github.sergius02.ulauncher-shortit",
        "url": "https://github.com/sergius02/ulauncher-shortit",
        "updated_at": "2024-03-17T03:00:18.305403",
        "last_commit": "f3df1e1427827a29d8840e0d1f0c25857f574fb8",
        "last_commit_time": "2020-12-15T08:21:43"
    },
    "com.github.kuenzelit.ulauncher-firefox-bookmarks": {
        "id": "com.github.kuenzelit.ulauncher-firefox-bookmarks",
        "url": "https://github.com/KuenzelIT/ulauncher-firefox-bookmarks",
        "updated_at": "2024-03-17T03:10:53.549008",
        "last_commit": "77f1de0adfc2e79ce767f645ae8ad0a0dda2783e",
        "last_commit_time": "2019-12-07T17:27:46"
    },
    "com.github.brpaz.ulauncher-cdnjs": {
        "id": "com.github.brpaz.ulauncher-cdnjs",
        "url": "https://github.com/brpaz/ulauncher-cdnjs",
        "updated_at": "2024-03-17T03:11:09.788063",
        "last_commit": "6fc7329314ecb8ce564ad749da8b8490765cec9a",
        "last_commit_time": "2021-12-12T15:44:39"
    },
    "com.github.aksdb.ulauncher-gitmoji": {
        "id": "com.github.aksdb.ulauncher-gitmoji",
        "url": "https://github.com/aksdb/ulauncher-gitmoji",
        "updated_at": "2024-03-17T03:47:59.623220",
        "last_commit": "aa62ee142ff08fd8bd01ab67342e7cdf7887f0cd",
        "last_commit_time": "2023-01-30T09:52:31"
    }
}